<svg xmlns="http://www.w3.org/2000/svg" width="36" height="36" viewBox="0 0 36 36">
<style type="text/css">
<![CDATA[
.st0{fill:#3399FF;}
]]>
</style>
<path id="facebook" class="st0" d="M16,10.7c0,0.6,0,3.3,0,3.3h-2.5v4h2.4v12h4.9V18h3.3c0,0,0.3-2,0.4-4c-0.4,0-3.8,0-3.8,0 s0-2.3,0-2.8s0.5-1,1.1-1s1.7,0,2.7,0c0-0.5,0-2.5,0-4.2c-1.4,0-3,0-3.7,0C15.8,6,16,10,16,10.7z"/>
</svg>
