<svg xmlns="http://www.w3.org/2000/svg" width="36px" height="36px" viewBox="0 0 36 36">
<style type="text/css">
<![CDATA[
.st0{fill:none;}
.st1{fill:#3399FF;}
]]>
</style>
<g>
<path class="st1" d="M14.1,11.4c-0.3-0.4-0.6-0.7-1-0.7H9.6c-0.2,0-0.4,0.1-0.5,0.2C9,11,9,11.2,9.1,11.4l2.3,4l0,0l-3.7,6.5 c-0.1,0.2-0.1,0.4,0,0.5c0.1,0.2,0.2,0.2,0.5,0.2h3.5c0.4,0,0.7-0.2,0.9-0.7c2.4-4.2,3.6-6.4,3.7-6.6L14.1,11.4z M28.2,6.8 c0.1-0.2,0.1-0.4,0-0.5c-0.1-0.1-0.2-0.2-0.4-0.2h-3.5c-0.4,0-0.7,0.2-0.9,0.7c-5,8.8-7.5,13.4-7.7,13.7l4.9,9 c0.2,0.4,0.6,0.7,1,0.7h3.5c0.2,0,0.4-0.1,0.5-0.2c0.1-0.2,0.1-0.3,0-0.5l-4.9-8.9l0,0L28.2,6.8z"/>
<rect x="218.1" y="218.1" class="st0" width="36" height="36"/>
</g>
</svg>
