<svg xmlns="http://www.w3.org/2000/svg" width="200px" height="80px" viewBox="0 0 200 80" >
<style type="text/css">
<![CDATA[
.text_2{fill:#181716;}
.text_1{fill:#2385E8;}
]]>
</style>
<path class="text_1" d="M85.5,14.6H81c-0.3,0-0.6,0.2-0.7,0.5L67.6,44.8c-0.2,0.6-1,2.6-1.1,3.2h-0.2c-0.2-0.6-0.8-2.8-1.1-3.2l-9-21.1 c-0.3-1-0.7-1.9-1.2-2.7c-1.8-3.1-4.7-5.3-8.5-6.1c-1.2-0.3-2.5-0.4-3.9-0.4h-11h-4.8c-0.6,0-0.8,0.2-0.8,0.8v20.7 c0,0.2-0.1,0.2-0.1,0.3c-0.1,0.3-0.3,0.5-0.7,0.5h-18c-0.6,0-0.8-0.2-0.8-0.8V15.4c0-0.6-0.2-0.8-0.8-0.8H0.8 c-0.6,0-0.8,0.2-0.8,0.8v49.3c0,0.6,0.2,0.8,0.8,0.8h4.7c0.6,0,0.8-0.2,0.8-0.8V43.3c0-0.6,0.2-0.8,0.8-0.8h18 c0.4,0,0.6,0.2,0.7,0.5c0,0.1,0.1,0.2,0.1,0.3v21.4c0,0.6,0.3,0.8,0.8,0.8h4.6c0.6,0,0.8-0.2,0.8-0.8V21c0-0.3,0.1-0.5,0.2-0.6 c0.1-0.1,0.3-0.2,0.6-0.2h9.6c1.4,0,2.7,0.4,3.9,1c2.5,1.4,4.1,4,4.1,6.9v0.8c0,3-1.7,5.6-4.1,7c-1.2,0.6-2.5,1-3.9,1H42h-2.6 c-0.5,0-0.7,0.2-0.7,0.7v4.1c0,0.5,0.2,0.7,0.7,0.7H42v0.1c0.3,0,0.6,0.2,0.6,0.5l3.7,10.7l3.9,11.3c0.1,0.3,0.4,0.6,0.7,0.6H52 h4.5c0.7,0,1-0.4,0.7-1.1l-4.4-12.6l-3.6-10.5c-0.2-0.4,0-0.7,0.4-0.9c1-0.4,2.1-1.2,3.1-2.2c0.8-0.8,1.5-1.6,2.2-2.6l9.7,21.8 c0.2,0.3,0.4,0.5,0.7,0.5h2.2c0.3,0,0.6-0.2,0.7-0.5l10.2-22.7c0.8-1.8,1.7-4.4,2-5.7l0.3,0.1C80.3,33.4,80,40.4,80,48.1v16.7 c0,0.6,0.2,0.8,0.8,0.8h4.7c0.6,0,0.8-0.2,0.8-0.8V15.4C86.3,14.8,86,14.6,85.5,14.6z"/>
<path class="text_2" d="M108.9,28.4h-1.3c-0.2,0-0.2-0.1-0.2-0.2v-5.9c0-0.2-0.1-0.2-0.2-0.2h-5c-0.2,0-0.2,0.1-0.2,0.2v5.9c0,0.2-0.1,0.2-0.2,0.2 h-1.3c-0.2,0-0.2-0.1-0.2-0.2V14.6c0-0.2,0.1-0.2,0.2-0.2h1.3c0.2,0,0.2,0.1,0.2,0.2v5.7c0,0.2,0.1,0.2,0.2,0.2h5 c0.2,0,0.2-0.1,0.2-0.2v-5.7c0-0.2,0.1-0.2,0.2-0.2h1.3c0.2,0,0.2,0.1,0.2,0.2v13.5C109.1,28.3,109.1,28.4,108.9,28.4z M118.8,28.6 h-0.7c-2.4,0-3.9-1.5-3.9-3.7V14.6c0-0.2,0.1-0.2,0.2-0.2h1.3c0.2,0,0.2,0.1,0.2,0.2v10.3c0,1.2,1,2.2,2.2,2.2h0.7 c1.2,0,2.2-1,2.2-2.2V14.6c0-0.2,0.1-0.2,0.2-0.2h1.3c0.2,0,0.2,0.1,0.2,0.2v10.3C122.7,27.1,121.2,28.6,118.8,28.6z M138.5,28.4 h-1.3c-0.2,0-0.2-0.1-0.2-0.2v-4.6c0-2.1,0.1-4,0.2-5.2h-0.1c-0.1,0.3-0.3,1.1-0.6,1.6l-2.8,6.2c0,0.1-0.1,0.1-0.2,0.1h-0.6 c-0.1,0-0.2,0-0.2-0.1L130,20c-0.2-0.4-0.4-1.1-0.6-1.6h-0.1c0.1,1.2,0.2,3,0.2,5.2v4.6c0,0.2-0.1,0.2-0.2,0.2H128 c-0.2,0-0.2-0.1-0.2-0.2V14.6c0-0.2,0.1-0.2,0.2-0.2h1.2c0.1,0,0.2,0,0.2,0.1l3.5,8.2c0.1,0.1,0.2,0.7,0.3,0.9h0.1 c0-0.2,0.2-0.7,0.3-0.9l3.5-8.2c0-0.1,0.1-0.1,0.2-0.1h1.2c0.2,0,0.2,0.1,0.2,0.2v13.5C138.7,28.3,138.6,28.4,138.5,28.4z M151.9,28.4h-1.4c-0.1,0-0.2,0-0.2-0.2l-0.8-3c0-0.1-0.1-0.1-0.2-0.1h-4c-0.1,0-0.2,0-0.2,0.1l-0.8,3c0,0.1-0.1,0.2-0.2,0.2h-1.3 c-0.2,0-0.3-0.1-0.2-0.3l4.1-13.5c0-0.1,0.1-0.2,0.2-0.2h1c0.1,0,0.2,0,0.2,0.2l4.1,13.5C152.1,28.3,152.1,28.4,151.9,28.4z M147.6,18.4c-0.2-0.8-0.3-1.6-0.3-1.6h-0.1c0,0-0.1,0.8-0.3,1.6l-1.3,4.9c0,0.2,0,0.3,0.2,0.3h2.9c0.2,0,0.3-0.1,0.2-0.3 L147.6,18.4z M164.4,28.4h-1.2c-0.1,0-0.2,0-0.2-0.1l-5.1-9.2c-0.2-0.3-0.3-0.7-0.4-1h-0.1c0,0.8,0.1,3.1,0.1,5.4v4.7 c0,0.2-0.1,0.2-0.2,0.2H156c-0.2,0-0.2-0.1-0.2-0.2V14.6c0-0.2,0.1-0.2,0.2-0.2h1.2c0.1,0,0.2,0,0.2,0.1l5.1,9.3 c0.1,0.2,0.3,0.7,0.4,1h0.1c0-0.9,0-3.6,0-5.3v-4.9c0-0.2,0.1-0.2,0.2-0.2h1.3c0.2,0,0.2,0.1,0.2,0.2v13.5 C164.6,28.3,164.6,28.4,164.4,28.4z M108.7,46.8h-1.5c-0.1,0-0.2-0.1-0.2-0.2l-2.1-6c0-0.1-0.1-0.1-0.2-0.1h-2.5 c-0.2,0-0.2,0.1-0.2,0.2v5.9c0,0.2-0.1,0.2-0.2,0.2h-1.3c-0.2,0-0.2-0.1-0.2-0.2V33.1c0-0.2,0.1-0.2,0.2-0.2h4.4 c2.4,0,3.9,1.5,3.9,3.9v0.2c0,1.2-1,2.6-2,3c-0.1,0-0.2,0.1-0.1,0.2l2.2,6.3C108.9,46.8,108.9,46.8,108.7,46.8z M107.1,36.6 c0-1.2-1-2.2-2.2-2.2h-2.6c-0.2,0-0.2,0.1-0.2,0.2v4.2c0,0.2,0.1,0.2,0.2,0.2h2.6c1.2,0,2.2-1,2.2-2.2V36.6z M120.8,46.8h-7.4 c-0.2,0-0.2-0.1-0.2-0.2V33.1c0-0.2,0.1-0.2,0.2-0.2h7.4c0.2,0,0.2,0.1,0.2,0.2v1.1c0,0.2-0.1,0.2-0.2,0.2h-5.7 c-0.2,0-0.2,0.1-0.2,0.2v4.2c0,0.2,0.1,0.2,0.2,0.2h4.7c0.2,0,0.2,0.1,0.2,0.2v1.1c0,0.2-0.1,0.2-0.2,0.2h-4.7 c-0.2,0-0.2,0.1-0.2,0.2v4.4c0,0.2,0.1,0.2,0.2,0.2h5.7c0.2,0,0.2,0.1,0.2,0.2v1.1C121,46.8,121,46.8,120.8,46.8z M132.8,46.8h-7.4 c-0.2,0-0.2-0.1-0.2-0.2V33.1c0-0.2,0.1-0.2,0.2-0.2h1.3c0.2,0,0.2,0.1,0.2,0.2v12c0,0.2,0.1,0.2,0.2,0.2h5.7 c0.2,0,0.2,0.1,0.2,0.2v1.1C133.1,46.8,133,46.8,132.8,46.8z M145.2,46.8h-1.4c-0.1,0-0.2,0-0.2-0.2l-0.8-3c0-0.1-0.1-0.1-0.2-0.1 h-4c-0.1,0-0.2,0-0.2,0.1l-0.8,3c0,0.1-0.1,0.2-0.2,0.2H136c-0.2,0-0.3-0.1-0.2-0.3l4.1-13.5c0-0.1,0.1-0.2,0.2-0.2h1 c0.1,0,0.2,0,0.2,0.2l4.1,13.5C145.5,46.8,145.4,46.8,145.2,46.8z M140.9,36.9c-0.2-0.8-0.3-1.6-0.3-1.6h-0.1c0,0-0.1,0.8-0.3,1.6 l-1.3,4.9c0,0.2,0,0.3,0.2,0.3h2.9c0.2,0,0.3-0.1,0.2-0.3L140.9,36.9z M154.4,34.5h-2.6c-0.2,0-0.2,0.1-0.2,0.2v12 c0,0.2-0.1,0.2-0.2,0.2h-1.3c-0.2,0-0.2-0.1-0.2-0.2v-12c0-0.2-0.1-0.2-0.2-0.2H147c-0.2,0-0.2-0.1-0.2-0.2v-1.1 c0-0.2,0.1-0.2,0.2-0.2h7.4c0.2,0,0.2,0.1,0.2,0.2v1.1C154.7,34.4,154.6,34.5,154.4,34.5z M159.8,46.8h-1.3c-0.2,0-0.2-0.1-0.2-0.2 V33.1c0-0.2,0.1-0.2,0.2-0.2h1.3c0.2,0,0.2,0.1,0.2,0.2v13.5C160,46.8,159.9,46.8,159.8,46.8z M169.5,47.1h-0.7 c-2.4,0-3.9-1.5-3.9-3.7v-7c0-2.2,1.5-3.7,3.9-3.7h0.7c2.4,0,3.9,1.5,3.9,3.7v7C173.4,45.6,171.9,47.1,169.5,47.1z M171.6,36.4 c0-1.2-1-2.2-2.2-2.2h-0.7c-1.2,0-2.2,1-2.2,2.2v7c0,1.2,1,2.2,2.2,2.2h0.7c1.2,0,2.2-1,2.2-2.2V36.4z M186.9,46.8h-1.2 c-0.1,0-0.2,0-0.2-0.1l-5.1-9.2c-0.2-0.3-0.3-0.7-0.4-1h-0.1c0,0.8,0.1,3.1,0.1,5.4v4.7c0,0.2-0.1,0.2-0.2,0.2h-1.3 c-0.2,0-0.2-0.1-0.2-0.2V33.1c0-0.2,0.1-0.2,0.2-0.2h1.2c0.1,0,0.2,0,0.2,0.1l5.1,9.3c0.1,0.2,0.3,0.7,0.4,1h0.1c0-0.9,0-3.6,0-5.3 v-4.8c0-0.2,0.1-0.2,0.2-0.2h1.3c0.2,0,0.2,0.1,0.2,0.2v13.5C187.1,46.8,187,46.8,186.9,46.8z M196.1,47.1h-1c-1.2,0-2-0.3-2.5-0.8 c-0.4-0.3-0.7-0.8-1-1.2c-0.1-0.1,0-0.2,0.1-0.3l1.2-0.6c0.1-0.1,0.2,0,0.3,0.1c0.4,0.8,1.2,1.2,2,1.2h1c1.2,0,2.2-1,2.2-2.2 c0-1.5-1.4-2.1-2.8-2.8c-1.7-0.8-3.6-1.6-3.6-4.2c0-2.1,1.6-3.7,3.9-3.7h0.4c1.3,0,2.2,0.4,2.8,1c0.3,0.3,0.5,0.6,0.7,1 c0.1,0.1,0,0.2-0.1,0.3l-1.2,0.6c-0.1,0.1-0.2,0-0.3-0.1c-0.5-0.8-1.2-1.2-2-1.2h-0.4c-1.3,0-2.2,0.9-2.2,2.2s1.4,1.9,3,2.6 c1.7,0.8,3.4,1.8,3.4,4.4C200,45.6,198.5,47.1,196.1,47.1z M111,65.3h-1.3c-0.2,0-0.2-0.1-0.2-0.2v-4.6c0-2.1,0.1-4,0.2-5.2h-0.1 c-0.1,0.3-0.3,1.1-0.6,1.6l-2.8,6.2c0,0.1-0.1,0.1-0.2,0.1h-0.6c-0.1,0-0.2,0-0.2-0.1l-2.8-6.2c-0.2-0.4-0.4-1.1-0.6-1.6h-0.1 c0.1,1.2,0.2,3,0.2,5.2v4.6c0,0.2-0.1,0.2-0.2,0.2h-1.3c-0.2,0-0.2-0.1-0.2-0.2V51.7c0-0.2,0.1-0.2,0.2-0.2h1.2 c0.1,0,0.2,0,0.2,0.1l3.5,8.2c0.1,0.1,0.2,0.7,0.3,0.9h0.1c0-0.2,0.2-0.7,0.3-0.9l3.5-8.2c0-0.1,0.1-0.1,0.2-0.1h1.2 c0.2,0,0.2,0.1,0.2,0.2v13.5C111.2,65.3,111.1,65.3,111,65.3z M124.3,65.3h-1.4c-0.1,0-0.2,0-0.2-0.2l-0.8-3c0-0.1-0.1-0.1-0.2-0.1 h-4c-0.1,0-0.2,0-0.2,0.1l-0.8,3c0,0.1-0.1,0.2-0.2,0.2h-1.3c-0.2,0-0.3-0.1-0.2-0.3l4.1-13.5c0-0.1,0.1-0.2,0.2-0.2h1 c0.1,0,0.2,0,0.2,0.2l4.1,13.5C124.6,65.3,124.5,65.3,124.3,65.3z M120,55.3c-0.2-0.8-0.3-1.6-0.3-1.6h-0.1c0,0-0.1,0.8-0.3,1.6 l-1.3,4.9c0,0.2,0,0.3,0.2,0.3h2.9c0.2,0,0.3-0.1,0.2-0.3L120,55.3z M136.9,65.3h-1.2c-0.1,0-0.2,0-0.2-0.1l-5.1-9.2 c-0.2-0.3-0.3-0.7-0.4-1h-0.1c0,0.8,0.1,3.1,0.1,5.4v4.7c0,0.2-0.1,0.2-0.2,0.2h-1.3c-0.2,0-0.2-0.1-0.2-0.2V51.7 c0-0.2,0.1-0.2,0.2-0.2h1.2c0.1,0,0.2,0,0.2,0.1l5.1,9.3c0.1,0.2,0.3,0.7,0.4,1h0.1c0-0.9,0-3.6,0-5.3v-4.8c0-0.2,0.1-0.2,0.2-0.2 h1.3c0.2,0,0.2,0.1,0.2,0.2v13.5C137.1,65.3,137,65.3,136.9,65.3z M150.3,65.3h-1.4c-0.1,0-0.2,0-0.2-0.2l-0.8-3 c0-0.1-0.1-0.1-0.2-0.1h-4c-0.1,0-0.2,0-0.2,0.1l-0.8,3c0,0.1-0.1,0.2-0.2,0.2H141c-0.2,0-0.3-0.1-0.2-0.3l4.1-13.5 c0-0.1,0.1-0.2,0.2-0.2h1c0.1,0,0.2,0,0.2,0.2l4.1,13.5C150.5,65.3,150.5,65.3,150.3,65.3z M146,55.3c-0.2-0.8-0.3-1.6-0.3-1.6 h-0.1c0,0-0.1,0.8-0.3,1.6l-1.3,4.9c0,0.2,0,0.3,0.2,0.3h2.9c0.2,0,0.3-0.1,0.2-0.3L146,55.3z M158.4,65.7h-0.7 c-2.4,0-3.9-1.5-3.9-3.7v-7c0-2.2,1.5-3.7,3.9-3.7h1.1c1.2,0,2.1,0.4,2.7,0.9c0.4,0.3,0.6,0.7,0.9,1.1c0.1,0.1,0,0.2-0.1,0.3 l-1.2,0.6c-0.1,0.1-0.2,0-0.3-0.1c-0.5-0.8-1.2-1.2-2-1.2h-1.1c-1.2,0-2.2,1-2.2,2.2v7c0,1.2,1,2.2,2.2,2.2h0.7 c1.2,0,2.2-1,2.2-2.2v-1.6c0-0.2-0.1-0.2-0.2-0.2h-2.3c-0.2,0-0.2-0.1-0.2-0.2v-1.1c0-0.2,0.1-0.2,0.2-0.2h4c0.2,0,0.2,0.1,0.2,0.2 v3.2C162.4,64.1,160.8,65.7,158.4,65.7z M174.8,65.3h-7.4c-0.2,0-0.2-0.1-0.2-0.2V51.7c0-0.2,0.1-0.2,0.2-0.2h7.4 c0.2,0,0.2,0.1,0.2,0.2v1.1c0,0.2-0.1,0.2-0.2,0.2h-5.7c-0.2,0-0.2,0.1-0.2,0.2v4.2c0,0.2,0.1,0.2,0.2,0.2h4.7 c0.2,0,0.2,0.1,0.2,0.2v1.1c0,0.2-0.1,0.2-0.2,0.2h-4.7c-0.2,0-0.2,0.1-0.2,0.2v4.4c0,0.2,0.1,0.2,0.2,0.2h5.7 c0.2,0,0.2,0.1,0.2,0.2v1.1C175,65.3,174.9,65.3,174.8,65.3z M187.6,65.3h-1.5c-0.1,0-0.2-0.1-0.2-0.2l-2.1-6 c0-0.1-0.1-0.1-0.2-0.1h-2.5c-0.2,0-0.2,0.1-0.2,0.2v5.9c0,0.2-0.1,0.2-0.2,0.2h-1.3c-0.2,0-0.2-0.1-0.2-0.2V51.7 c0-0.2,0.1-0.2,0.2-0.2h4.4c2.4,0,3.9,1.5,3.9,3.9v0.2c0,1.2-1,2.6-2,3c-0.1,0-0.2,0.1-0.1,0.2l2.2,6.3 C187.8,65.3,187.8,65.3,187.6,65.3z M186,55.2c0-1.2-1-2.2-2.2-2.2h-2.6c-0.2,0-0.2,0.1-0.2,0.2v4.2c0,0.2,0.1,0.2,0.2,0.2h2.6 c1.2,0,2.2-1,2.2-2.2V55.2z"/>
</svg>
